src/waves.vcd
$comment
TOOL:	simvisdbutil(64)	23.09-s001
$end

$date
    Nov 29, 2024 15:43:31
$end

$timescale
    1ps
$end


$scope module hw_top $end

$scope module dut $end

$scope module u_hdcom28_top $end

$scope module cpu_core $end
$var integer 32 ! hart_id_i [31:0] $end
$var integer 32 " instr_addr_o [31:0] $end
$var wire 1 # instr_err_i $end
$var wire 1 $ instr_gnt_i $end
$var integer 32 % instr_rdata_i [31:0] $end
$var wire 1 & instr_req_o $end
$var wire 1 ' instr_rvalid_i $end
$var wire 1 ( irq_external_i $end
$var wire 15 ) irq_fast_i [14:0] $end
$var wire 1 * irq_nm_i $end
$var wire 1 + irq_software_i $end
$var wire 1 , irq_timer_i $end
$var wire 10 - ram_cfg_i $end
$var wire 1 . rst_ni $end
$var wire 1 / rvfi_halt $end
$var integer 32 0 rvfi_insn [31:0] $end
$var wire 1 1 rvfi_intr $end
$var wire 2 2 rvfi_ixl [1:0] $end
$var integer 32 3 rvfi_mem_addr [31:0] $end
$var integer 32 4 rvfi_mem_rdata [31:0] $end
$var wire 4 5 rvfi_mem_rmask [3:0] $end
$var integer 32 6 rvfi_mem_wdata [31:0] $end
$var wire 4 7 rvfi_mem_wmask [3:0] $end
$var wire 2 8 rvfi_mode [1:0] $end
$var wire 64 9 rvfi_order [63:0] $end
$var integer 32 : rvfi_pc_rdata [31:0] $end
$var integer 32 ; rvfi_pc_wdata [31:0] $end
$var wire 5 < rvfi_rd_addr [4:0] $end
$var integer 32 = rvfi_rd_wdata [31:0] $end
$var wire 5 > rvfi_rs1_addr [4:0] $end
$var integer 32 ? rvfi_rs1_rdata [31:0] $end
$var wire 5 @ rvfi_rs2_addr [4:0] $end
$var integer 32 A rvfi_rs2_rdata [31:0] $end
$var wire 5 B rvfi_rs3_addr [4:0] $end
$var integer 32 C rvfi_rs3_rdata [31:0] $end
$var wire 1 D rvfi_trap $end
$var wire 1 E rvfi_valid $end
$var wire 1 F scan_rst_ni $end
$var wire 1 G test_en_i $end
$upscope $end

$upscope $end

$upscope $end

$upscope $end

$enddefinitions $end
#0
$dumpvars
b0 !
b10000000 "
x#
0$
bx %
0&
x'
0(
b0 )
0*
0+
0,
b0 -
0.
0/
b0 0
01
b1 2
b0 3
b0 4
b0 5
b0 6
b0 7
b11 8
b0 9
b0 :
b0 ;
b0 <
b0 =
b0 >
b0 ?
b0 @
b0 A
b0 B
b0 C
0D
0E
0F
0G
$end
#382000
0#
b10101110100000010000001101111 %
0'
#828000
1.
#834000
1&
1$
#838000
b10000100 "
1'
#842000
b10100111011100 "
b0 %
#846000
b10010011 %
b10100111100000 "
#850000
b10100111100100 "
b10101110100000010000001101111 0
b10100111011100 3
b1111 5
b1000000100010011 %
1E
b1 9
b10000000 :
b10100111011100 ;
#854000
b10100111100000 ;
b0 3
b10100111101000 "
b1 <
b10010011 0
b10100111011100 :
b1000000110010011 %
b10 9
#858000
b11 9
b10 <
b10100111100100 ;
b1 >
b10100111101100 "
b1000001000010011 %
b1000000100010011 0
b10100111100000 :
#862000
b10100111100100 :
b11 <
b100 9
b10100111101000 ;
b1000000110010011 0
b10100111110000 "
b1000001010010011 %
#866000
b1000001100010011 %
b101 9
b10100111101000 :
b100 <
b10100111110100 "
b10100111101100 ;
b1000001000010011 0
#870000
b1000001010010011 0
b10100111101100 :
b1000001110010011 %
b110 9
b10100111110000 ;
b101 <
b10100111111000 "
#874000
b10100111111100 "
b1000010000010011 %
b1000001100010011 0
b10100111110000 :
b110 <
b111 9
b10100111110100 ;
#878000
b10100111111000 ;
b1000001110010011 0
b10101000000000 "
b1000010010010011 %
b1000 9
b10100111110100 :
b111 <
#882000
b1000 <
b10101000000100 "
b10100111111100 ;
b1000010000010011 0
b10100111111000 :
b1000010100010011 %
b1001 9
#886000
b1010 9
b10101000000000 ;
b1001 <
b10101000001000 "
b1000010110010011 %
b1000010010010011 0
b10100111111100 :
#890000
b10101000000000 :
b1010 <
b1011 9
b10101000000100 ;
b1000010100010011 0
b10101000001100 "
b1000011000010011 %
#894000
b1000011010010011 %
b1100 9
b10101000000100 :
b1011 <
b10101000010000 "
b10101000001000 ;
b1000010110010011 0
#898000
b1000011000010011 0
b10101000001000 :
b1000011100010011 %
b1101 9
b10101000001100 ;
b1100 <
b10101000010100 "
#902000
b10101000011000 "
b1000011110010011 %
b1000011010010011 0
b10101000001100 :
b1101 <
b1110 9
b10101000010000 ;
#906000
b10101000010100 ;
b1000011100010011 0
b10101000011100 "
b1000100000010011 %
b1111 9
b10101000010000 :
b1110 <
#910000
b1111 <
b10101000100000 "
b10101000011000 ;
b1000011110010011 0
b10101000010100 :
b1000100010010011 %
b10000 9
#914000
b10001 9
b10101000011100 ;
b10000 <
b10101000100100 "
b1000100100010011 %
b1000100000010011 0
b10101000011000 :
#918000
b10101000011100 :
b10001 <
b10010 9
b10101000100000 ;
b1000100010010011 0
b10101000101000 "
b1000100110010011 %
#922000
b1000101000010011 %
b10011 9
b10101000100000 :
b10010 <
b10101000101100 "
b10101000100100 ;
b1000100100010011 0
#926000
b1000100110010011 0
b10101000100100 :
b1000101010010011 %
b10100 9
b10101000101000 ;
b10011 <
b10101000110000 "
#930000
b10101000110100 "
b1000101100010011 %
b1000101000010011 0
b10101000101000 :
b10100 <
b10101 9
b10101000101100 ;
#934000
b10101000110000 ;
b1000101010010011 0
b10101000111000 "
b1000101110010011 %
b10110 9
b10101000101100 :
b10101 <
#938000
b10110 <
b10101000111100 "
b10101000110100 ;
b1000101100010011 0
b10101000110000 :
b1000110000010011 %
b10111 9
#942000
b11000 9
b10101000111000 ;
b10111 <
b10101001000000 "
b1000110010010011 %
b1000101110010011 0
b10101000110100 :
#946000
b10101000111000 :
b11000 <
b11001 9
b10101000111100 ;
b1000110000010011 0
b10101001000100 "
b1000110100010011 %
#950000
b1000110110010011 %
b11010 9
b10101000111100 :
b11001 <
b10101001001000 "
b10101001000000 ;
b1000110010010011 0
#954000
b1000110100010011 0
b10101001000000 :
b1000111000010011 %
b11011 9
b10101001000100 ;
b11010 <
b10101001001100 "
#958000
b10101001010000 "
b1000111010010011 %
b1000110110010011 0
b10101001000100 :
b11011 <
b11100 9
b10101001001000 ;
#962000
b10101001001100 ;
b1000111000010011 0
b10101001010100 "
b1000111100010011 %
b11101 9
b10101001001000 :
b11100 <
#966000
b11101 <
b10101001011000 "
b10101001010000 ;
b1000111010010011 0
b10101001001100 :
b1000111110010011 %
b11110 9
#970000
b11111 9
b10101001010100 ;
b11110 <
b10101001011100 "
b110101000100010111 %
b1000111100010011 0
b10101001010000 :
#974000
b10101001010100 :
b11111 <
b100000 9
b10101001011000 ;
b1000111110010011 0
b10101001100000 "
b1011010100000010000000100010011 %
#978000
b101000100010111 %
b100001 9
b10101001011000 :
b110111101001011000 3
b110111101001011000 =
b0 >
b10 <
b10101001100100 "
b10101001011100 ;
b110101000100010111 0
#982000
b1011010100000010000000100010011 0
b10 >
b111000000000000000 3
b100010 9
b1011010000000010000000100010011 %
b10101001011100 :
b110111101001011000 ?
b111000000000000000 =
b10101001100000 ;
b10101001101000 "
#986000
b10101001101100 "
b0 ?
b110001010110111 %
b0 >
b101000100010111 0
b100011 9
b111101001100000 3
b10101001100000 :
b10101001100100 ;
b111101001100000 =
#990000
b1000000000000000 =
b1000000000000000 3
b1011010000000010000000100010011 0
b111101001100000 ?
b10101001110000 "
b10 >
b110000000000101010000001110011 %
b100100 9
b10101001101000 ;
b10101001100100 :
#994000
b10101001101000 :
b1100000000000000000001100010011 %
b10101001110100 "
b110000000000000 3
b110000000000000 =
b0 ?
b110001010110111 0
b0 >
b10101001101100 ;
b101 <
b100101 9
#998000
b100110 9
b110000000000101010000001110011 0
b0 =
b110000000000110010000001110011 %
b10101001101100 :
b101110100000000 3
b10101001111000 "
b110000000000000 ?
b0 <
b101 >
b10101001110000 ;
#1002000
b10101001111100 "
b110100010111 %
0$
0&
0E
#1006000
b1011000100011010000110100010011 %
1&
1$
0'
#1010000
1'
1E
b10101010000000 "
b1100000000000000000001100010011 0
b100111 9
b10101001110100 ;
b10101001110000 :
b11000000000 =
b11000000000 3
b0 >
b0 ?
b110 <
#1014000
b0 <
b0 =
b10101001111000 ;
b101000 9
b10101010000100 "
b110000000000110010000001110011 0
b10101001110100 :
b11000000000 ?
b1100000000 3
0$
b110 >
b101110110010111 %
0&
#1018000
0E
0'
b1011001100011011000110110010011 %
#1022000
1&
1$
#1026000
1E
b110100010111 0
b101001 9
b10101001111100 ;
b11010 <
b10101001111000 =
b10101010001000 "
b0 ?
b10101001111000 :
1'
b10101001111000 3
b0 >
#1030000
b11010 >
b11000000000000 =
b10101010000000 ;
b1101111010101100001100011 %
b101010 9
b1011000100011010000110100010011 0
b11000000000000 3
b10101010001100 "
b10101001111000 ?
b10101001111100 :
#1034000
b10101010000000 :
b101011 9
b11010010000000100011 %
b0 >
b10101010000100 ;
b111101010000000 =
b11011 <
b0 ?
b101110110010111 0
b10101010010000 "
b111101010000000 3
#1038000
b1000000000011000 3
b1000000000011000 =
b11011 >
b10101010000100 :
b10011010000110100010011 %
b101100 9
b10101010001000 ;
b10101010010100 "
b1011001100011011000110110010011 0
b111101010000000 ?
#1042000
b11000000000000 ?
b101101 9
b10101010001000 :
b11111111111111111010111111101000 3
0$
b11010 >
b0 =
b11111111101011011101110011100011 %
b11011 @
b1000000000011000 A
b1000000000011000 6
b1101111010101100001100011 0
b0 <
b10101010011000 "
b10101010001100 ;
#1046000
1$
0E
b0 %
0'
#1050000
1'
1E
b10101010010000 ;
b101110 9
b0 A
b11000000000000 3
b10101010001100 :
b0 @
b11010 B
b11000000000000 C
b10100010011 %
b0 6
b1111 7
b10101010011100 "
b11010010000000100011 0
#1054000
b10011010000110100010011 0
b0 B
b101111 9
b10101010010100 ;
b11000000000100 =
b10101010010000 :
b11000000000100 3
b10101010100000 "
b10110010011 %
b0 C
b0 7
b11010 <
#1058000
0E
b10101010001100 "
b1111110000000000000011101111 %
#1062000
b11010010000000100011 %
b0 <
b10101010010100 :
b1000000000011000 ?
b11011 B
b11111111101011011101110011100011 0
b11000000000100 A
b0 =
b11010 @
b11011 >
b10101010001100 ;
b110000 9
b10101010010000 "
b101000000010100 3
1E
b1000000000011000 C
b11000000000100 6
#1066000
b10011010000110100010011 %
0$
0E
b10101010010100 "
#1070000
b0 %
0'
1$
#1074000
b11111111101011011101110011100011 %
b10101010011000 "
b10101010010000 ;
b11010 B
b11000000000100 ?
b10101010001100 :
b0 6
b0 A
b11010010000000100011 0
b11010 >
b0 @
1'
b110001 9
b1111 7
1E
b11000000000100 C
b11000000000100 3
#1078000
b11000000001000 3
b0 B
b10100010011 %
b10101010010100 ;
b11010 <
b10101010011100 "
b10011010000110100010011 0
b10101010010000 :
b11000000001000 =
b0 C
b110010 9
b0 7
#1082000
b10110010011 %
b10101010001100 "
0E
#1086000
1E
b11010010000000100011 %
b10101010010100 :
b11011 >
b10101010001100 ;
b101000000010000 3
b11011 B
b0 <
b1000000000011000 ?
b11111111101011011101110011100011 0
b11000000001000 6
b11000000001000 A
b10101010010000 "
b11010 @
b110011 9
b1000000000011000 C
b0 =
#1090000
0E
0$
b10011010000110100010011 %
b10101010010100 "
#1094000
1$
b0 %
0'
#1098000
1'
b10101010011000 "
1E
b0 6
b10101010010000 ;
b11010 >
b10101010001100 :
b11010010000000100011 0
b11000000001000 3
b1111 7
b11000000001000 ?
b11010 B
b11111111101011011101110011100011 %
b0 A
b11000000001000 C
b110100 9
b0 @
#1102000
b10101010010100 ;
b10101010011100 "
b11000000001100 =
b0 7
b10101010010000 :
b11000000001100 3
b10011010000110100010011 0
b11010 <
b110101 9
b0 B
b0 C
b10100010011 %
#1106000
b10110010011 %
0E
b10101010001100 "
#1110000
b10101010010000 "
1E
b11111111101011011101110011100011 0
b1000000000011000 ?
b10101010001100 ;
b11000000001100 6
b11010 @
b11010010000000100011 %
b101000000001100 3
b11011 >
b10101010010100 :
b0 =
b1000000000011000 C
b0 <
b11011 B
b110110 9
b11000000001100 A
#1114000
b10101010010100 "
0E
b10011010000110100010011 %
0$
#1118000
1$
0'
b0 %
#1122000
b11111111101011011101110011100011 %
1E
b0 A
b10101010010000 ;
b10101010001100 :
b11000000001100 ?
b11010010000000100011 0
b10101010011000 "
b0 @
b0 6
b11010 >
b11000000001100 3
b1111 7
1'
b110111 9
b11010 B
b11000000001100 C
#1126000
b0 C
b11000000010000 3
b10101010010000 :
b10100010011 %
b10101010010100 ;
b10011010000110100010011 0
b10101010011100 "
b0 B
b0 7
b11000000010000 =
b111000 9
b11010 <
#1130000
0E
b10110010011 %
b10101010001100 "
#1134000
b10101010010000 "
1E
b11111111101011011101110011100011 0
b1000000000011000 C
b10101010010100 :
b101000000001000 3
b11000000010000 A
b0 <
b11011 >
b1000000000011000 ?
b10101010001100 ;
b11000000010000 6
b11010 @
b11010010000000100011 %
b111001 9
b11011 B
b0 =
#1138000
b10101010010100 "
0$
0E
b10011010000110100010011 %
#1142000
b0 %
1$
0'
#1146000
1'
b11111111101011011101110011100011 %
b10101010011000 "
b0 6
b10101010001100 :
b11000000010000 C
b11010010000000100011 0
b10101010010000 ;
b0 A
b11000000010000 3
b11000000010000 ?
b11010 >
b11010 B
b0 @
1E
b111010 9
b1111 7
#1150000
b0 7
b10101010010000 :
b10100010011 %
b11000000010100 =
b10101010011100 "
b11000000010100 3
b10011010000110100010011 0
b0 C
b11010 <
b10101010010100 ;
b111011 9
b0 B
#1154000
b10110010011 %
b10101010001100 "
0E
#1158000
1E
b11010010000000100011 %
b0 <
b1000000000011000 ?
b10101010010100 :
b11000000010100 6
b11011 B
b1000000000011000 C
b0 =
b11111111101011011101110011100011 0
b11000000010100 A
b101000000000100 3
b10101010010000 "
b11011 >
b111100 9
b10101010001100 ;
b11010 @
#1162000
0E
b10011010000110100010011 %
0$
b10101010010100 "
#1166000
0'
1$
b0 %
#1170000
b11111111101011011101110011100011 %
b10101010011000 "
1E
b0 @
b11000000010100 ?
b0 A
b1111 7
b11010010000000100011 0
b0 6
b10101010001100 :
b11010 B
b11000000010100 C
b10101010010000 ;
b11000000010100 3
1'
b111101 9
b11010 >
#1174000
b0 B
b10101010011100 "
b10100010011 %
b11010 <
b10101010010000 :
b0 7
b11000000011000 =
b10011010000110100010011 0
b111110 9
b0 C
b10101010010100 ;
b11000000011000 3
#1178000
b10101010001100 "
0E
b10110010011 %
#1182000
b11010010000000100011 %
1E
b101000000000000 3
b11011 >
b1000000000011000 ?
b0 =
b11010 @
b11011 B
b10101010010000 "
b11000000011000 A
b10101010010100 :
b11000000011000 6
b0 <
b10101010001100 ;
b11111111101011011101110011100011 0
b1000000000011000 C
b111111 9
#1186000
0E
b10011010000110100010011 %
b10101010010100 "
0$
#1190000
1$
b0 %
0'
#1194000
1'
b1000000 9
b0 6
b11000000011000 ?
b11000000011000 3
b11010 >
1E
b0 @
b1111 7
b10101010001100 :
b11010 B
b0 A
b11111111101011011101110011100011 %
b11000000011000 C
b10101010011000 "
b11010010000000100011 0
b10101010010000 ;
#1198000
b10101010010100 ;
b0 B
b11000000011100 =
b1000001 9
b10101010010000 :
b11000000011100 3
b0 7
b10011010000110100010011 0
b11010 <
b10101010011100 "
b10100010011 %
b0 C
#1202000
0E
b10110010011 %
b10101010001100 "
#1206000
b10101010010000 "
b1000000000011000 C
b11011 B
b1000000000011000 ?
b10101010001100 ;
b11000000011100 6
b100111111111100 3
b0 =
b11011 >
b10101010010100 :
b1000010 9
b11010 @
b11010010000000100011 %
b11000000011100 A
1E
b11111111101011011101110011100011 0
b0 <
#1210000
b10101010010100 "
0$
0E
b10011010000110100010011 %
#1214000
b0 %
0'
1$
#1218000
b11111111101011011101110011100011 %
b10101010011000 "
b1000011 9
b11000000011100 ?
b11010 B
b11000000011100 C
b10101010001100 :
b0 6
b10101010010000 ;
b11010 >
b11000000011100 3
1'
b0 @
b1111 7
1E
b11010010000000100011 0
b0 A
#1222000
b10100010011 %
b1000100 9
b11010 <
b10101010011100 "
b10101010010100 ;
b0 C
b0 B
b10101010010000 :
b11000000100000 =
b10011010000110100010011 0
b11000000100000 3
b0 7
#1226000
b10110010011 %
b10101010001100 "
0E
#1230000
1E
b11010010000000100011 %
b10101010010100 :
b1000000000011000 ?
b1000101 9
b11011 >
b11000000100000 A
b11011 B
b0 <
b1000000000011000 C
b11000000100000 6
b10101010001100 ;
b10101010010000 "
b0 =
b100111111111000 3
b11010 @
b11111111101011011101110011100011 0
#1234000
0E
0$
b10011010000110100010011 %
b10101010010100 "
#1238000
1$
b0 %
0'
#1242000
1'
b10101010011000 "
1E
b0 6
b1000110 9
b11010010000000100011 0
b11000000100000 ?
b10101010001100 :
b11000000100000 C
b11010 >
b1111 7
b0 A
b11010 B
b11111111101011011101110011100011 %
b10101010010000 ;
b0 @
b11000000100000 3
#1246000
b11000000100100 3
b10011010000110100010011 0
b10101010011100 "
b1000111 9
b0 7
b10101010010000 :
b11010 <
b0 C
b0 B
b10101010010100 ;
b10100010011 %
b11000000100100 =
#1250000
0E
b10101010001100 "
b10110010011 %
#1254000
b11010010000000100011 %
1E
b0 <
b11000000100100 A
b11111111101011011101110011100011 0
b100111111110100 3
b11000000100100 6
b0 =
b10101010010100 :
b1000000000011000 ?
b11011 >
b1001000 9
b10101010010000 "
b11010 @
b10101010001100 ;
b1000000000011000 C
b11011 B
#1258000
b10011010000110100010011 %
0E
0$
b10101010010100 "
#1262000
b0 %
0'
1$
#1266000
b11111111101011011101110011100011 %
b10101010011000 "
b11010 B
b11010010000000100011 0
b11010 >
b0 A
b11000000100100 ?
b0 6
b11000000100100 3
b10101010001100 :
b1111 7
1'
b11000000100100 C
b1001001 9
1E
b10101010010000 ;
b0 @
#1270000
b10101010010000 :
b10011010000110100010011 0
b10100010011 %
b0 B
b10101010011100 "
b11010 <
b11000000101000 3
b11000000101000 =
b10101010010100 ;
b0 7
b0 C
b1001010 9
#1274000
b10110010011 %
b10101010001100 "
0E
#1278000
1E
b11010010000000100011 %
b100111111110000 3
b11010 @
b11011 B
b10101010010100 :
b11111111101011011101110011100011 0
b1001011 9
b11000000101000 A
b11011 >
b0 <
b1000000000011000 ?
b11000000101000 6
b10101010010000 "
b0 =
b1000000000011000 C
b10101010001100 ;
#1282000
0E
0$
b10011010000110100010011 %
b10101010010100 "
#1286000
1$
b0 %
0'
#1290000
1'
b10101010011000 "
1E
b11000000101000 ?
b11010 B
b10101010010000 ;
b0 @
b11000000101000 3
b11010010000000100011 0
b10101010001100 :
b11010 >
b1001100 9
b0 A
b11111111101011011101110011100011 %
b0 6
b11000000101000 C
b1111 7
#1294000
b0 7
b1001101 9
b10101010010100 ;
b10101010011100 "
b0 B
b11010 <
b10101010010000 :
b11000000101100 3
b10011010000110100010011 0
b0 C
b10100010011 %
b11000000101100 =
#1298000
0E
b10101010001100 "
b10110010011 %
#1302000
b11010010000000100011 %
1E
b100111111101100 3
b10101010001100 ;
b1001110 9
b1000000000011000 ?
b0 =
b11011 >
b11010 @
b10101010010100 :
b0 <
b11011 B
b10101010010000 "
b11000000101100 A
b1000000000011000 C
b11000000101100 6
b11111111101011011101110011100011 0
#1306000
b10011010000110100010011 %
0E
0$
b10101010010100 "
#1310000
b0 %
0'
1$
#1314000
b11111111101011011101110011100011 %
b10101010011000 "
b11010010000000100011 0
b1111 7
b11000000101100 3
b10101010010000 ;
b10101010001100 :
b11000000101100 ?
b1001111 9
b0 @
b11010 >
1'
b0 6
b11010 B
1E
b11000000101100 C
b0 A
#1318000
b0 7
b10100010011 %
b10011010000110100010011 0
b11010 <
b10101010011100 "
b1010000 9
b10101010010100 ;
b11000000110000 3
b11000000110000 =
b10101010010000 :
b0 C
b0 B
#1322000
b10110010011 %
b10101010001100 "
0E
#1326000
1E
b11010010000000100011 %
b0 =
b11010 @
b11111111101011011101110011100011 0
b11000000110000 A
b11011 B
b100111111101000 3
b0 <
b10101010001100 ;
b1000000000011000 ?
b1010001 9
b10101010010000 "
b11011 >
b1000000000011000 C
b11000000110000 6
b10101010010100 :
#1330000
0E
0$
b10011010000110100010011 %
b10101010010100 "
#1334000
1$
b0 %
0'
#1338000
1'
b10101010011000 "
1E
b11000000110000 ?
b0 @
b10101010001100 :
b1111 7
b10101010010000 ;
b0 A
b11010010000000100011 0
b11010 B
b11000000110000 3
b11111111101011011101110011100011 %
b1010010 9
b0 6
b11000000110000 C
b11010 >
#1342000
b0 B
b10101010011100 "
b11000000110100 =
b10011010000110100010011 0
b0 7
b10101010010000 :
b11010 <
b10101010010100 ;
b0 C
b11000000110100 3
b10100010011 %
b1010011 9
#1346000
0E
b10101010001100 "
b10110010011 %
#1350000
b11010010000000100011 %
1E
b0 <
b11010 @
b11011 B
b1000000000011000 ?
b11011 >
b1010100 9
b10101010010100 :
b0 =
b11000000110100 A
b11111111101011011101110011100011 0
b10101010010000 "
b10101010001100 ;
b100111111100100 3
b11000000110100 6
b1000000000011000 C
#1354000
b10011010000110100010011 %
0E
0$
b10101010010100 "
#1358000
b0 %
0'
1$
#1362000
b11111111101011011101110011100011 %
b10101010011000 "
b11000000110100 C
b11010 B
b0 A
b0 @
b11010 >
b11000000110100 ?
b10101010001100 :
b1111 7
b1010101 9
1'
b0 6
b11010010000000100011 0
1E
b11000000110100 3
b10101010010000 ;
#1366000
b10101010010100 ;
b0 7
b0 B
b10100010011 %
b0 C
b10101010011100 "
b11010 <
b10101010010000 :
b11000000111000 =
b11000000111000 3
b1010110 9
b10011010000110100010011 0
#1370000
b10110010011 %
b10101010001100 "
0E
#1374000
1E
b11010010000000100011 %
b10101010010100 :
b10101010001100 ;
b1000000000011000 C
b11011 B
b11111111101011011101110011100011 0
b0 <
b11000000111000 A
b1000000000011000 ?
b11010 @
b11011 >
b10101010010000 "
b0 =
b1010111 9
b11000000111000 6
b100111111100000 3
#1378000
0E
0$
b10011010000110100010011 %
b10101010010100 "
#1382000
1$
b0 %
0'
#1386000
1'
b10101010011000 "
1E
b0 @
b10101010010000 ;
b11000000111000 3
b1111 7
b10101010001100 :
b11000000111000 ?
b11010 B
b11000000111000 C
b0 A
b11010010000000100011 0
b11111111101011011101110011100011 %
b11010 >
b0 6
b1011000 9
#1390000
b1011001 9
b11000000111100 3
b10101010011100 "
b10101010010100 ;
b0 C
b10101010010000 :
b0 7
b0 B
b11010 <
b10011010000110100010011 0
b10100010011 %
b11000000111100 =
#1394000
0E
b10101010001100 "
b10110010011 %
#1398000
b11010010000000100011 %
1E
b11011 B
b11000000111100 A
b100111111011100 3
b1011010 9
b11010 @
b0 =
b10101010001100 ;
b10101010010100 :
b1000000000011000 ?
b1000000000011000 C
b10101010010000 "
b11000000111100 6
b11111111101011011101110011100011 0
b11011 >
b0 <
#1402000
b10011010000110100010011 %
0E
0$
b10101010010100 "
#1406000
b0 %
0'
1$
#1410000
b11111111101011011101110011100011 %
b10101010011000 "
b11000000111100 3
b11000000111100 ?
b0 A
b11010 B
b10101010001100 :
b1011011 9
b1111 7
b10101010010000 ;
b0 @
1'
b11010 >
b11000000111100 C
1E
b11010010000000100011 0
b0 6
#1414000
b10101010010100 ;
b11010 <
b11000001000000 3
b10100010011 %
b10101010011100 "
b0 7
b0 B
b1011100 9
b10101010010000 :
b11000001000000 =
b10011010000110100010011 0
b0 C
#1418000
b10110010011 %
b10101010001100 "
0E
#1422000
1E
b11010010000000100011 %
b100111111011000 3
b1000000000011000 ?
b0 <
b11000001000000 6
b10101010001100 ;
b1000000000011000 C
b1011101 9
b11000001000000 A
b10101010010100 :
b11011 B
b10101010010000 "
b11010 @
b11111111101011011101110011100011 0
b11011 >
b0 =
#1426000
0E
0$
b10011010000110100010011 %
b10101010010100 "
#1430000
1$
b0 %
0'
#1434000
1'
b10101010011000 "
1E
b10101010001100 :
b11000001000000 ?
b11000001000000 3
b0 A
b10101010010000 ;
b0 6
b1011110 9
b11000001000000 C
b1111 7
b11111111101011011101110011100011 %
b11010 B
b11010 >
b11010010000000100011 0
b0 @
#1438000
b0 C
b10101010010000 :
b11010 <
b11000001000100 =
b10101010011100 "
b1011111 9
b11000001000100 3
b10101010010100 ;
b10011010000110100010011 0
b0 7
b10100010011 %
b0 B
#1442000
0E
b10101010001100 "
b10110010011 %
#1446000
b11010010000000100011 %
1E
b100111111010100 3
b11010 @
b0 <
b10101010010100 :
b1000000000011000 C
b11011 B
b0 =
b1000000000011000 ?
b1100000 9
b11000001000100 A
b11000001000100 6
b10101010010000 "
b10101010001100 ;
b11011 >
b11111111101011011101110011100011 0
#1450000
b10011010000110100010011 %
0E
0$
b10101010010100 "
#1454000
b0 %
0'
1$
#1458000
b11111111101011011101110011100011 %
b10101010011000 "
b11010010000000100011 0
b0 A
b0 @
b11000001000100 3
b1100001 9
b11000001000100 C
b10101010001100 :
b11000001000100 ?
b11010 B
1'
b11010 >
b0 6
1E
b1111 7
b10101010010000 ;
#1462000
b10101010010100 ;
b11010 <
b10011010000110100010011 0
b10100010011 %
b10101010011100 "
b10101010010000 :
b11000001001000 3
b0 C
b1100010 9
b11000001001000 =
b0 7
b0 B
#1466000
b10110010011 %
b10101010001100 "
0E
#1470000
1E
b11010010000000100011 %
b11111111101011011101110011100011 0
b11000001001000 A
b0 <
b1000000000011000 ?
b10101010001100 ;
b11011 B
b1000000000011000 C
b11010 @
b1100011 9
b100111111010000 3
b10101010010100 :
b10101010010000 "
b0 =
b11011 >
b11000001001000 6
#1474000
0E
0$
b10011010000110100010011 %
b10101010010100 "
#1478000
1$
b0 %
0'
#1482000
1'
b10101010011000 "
1E
b11000001001000 3
b0 6
b0 A
b11010010000000100011 0
b1100100 9
b10101010010000 ;
b11000001001000 ?
b0 @
b11010 B
b11000001001000 C
b11111111101011011101110011100011 %
b10101010001100 :
b11010 >
b1111 7
#1486000
b0 7
b0 B
b11010 <
b11000001001100 3
b10101010011100 "
b10011010000110100010011 0
b1100101 9
b10101010010100 ;
b0 C
b10101010010000 :
b10100010011 %
b11000001001100 =
#1490000
0E
b10101010001100 "
b10110010011 %
#1494000
b11010010000000100011 %
1E
b1100110 9
b11000001001100 6
b0 <
b11011 B
b0 =
b11010 @
b11000001001100 A
b11111111101011011101110011100011 0
b1000000000011000 ?
b100111111001100 3
b10101010010000 "
b11011 >
b10101010010100 :
b10101010001100 ;
b1000000000011000 C
#1498000
b10011010000110100010011 %
0E
0$
b10101010010100 "
#1502000
b0 %
0'
1$
#1506000
b11111111101011011101110011100011 %
b10101010011000 "
b11000001001100 C
b0 6
b11000001001100 ?
b1111 7
b1100111 9
b11010010000000100011 0
b11010 B
b0 A
b0 @
1'
b10101010010000 ;
b11000001001100 3
1E
b10101010001100 :
b11010 >
#1510000
b10100010011 %
b10101010011100 "
b0 C
b0 B
b0 7
b11010 <
b10011010000110100010011 0
b11000001010000 =
b1101000 9
b10101010010000 :
b10101010010100 ;
b11000001010000 3
#1514000
b10110010011 %
b10101010001100 "
0E
#1518000
1E
b11010010000000100011 %
b0 =
b1000000000011000 ?
b11011 >
b11000001010000 6
b11000001010000 A
b100111111001000 3
b11111111101011011101110011100011 0
b1000000000011000 C
b0 <
b11011 B
b10101010010000 "
b11010 @
b10101010001100 ;
b10101010010100 :
b1101001 9
#1522000
0E
0$
b10011010000110100010011 %
b10101010010100 "
#1526000
1$
b0 %
0'
#1530000
1'
b10101010011000 "
1E
b11010 >
b1101010 9
b11000001010000 ?
b11000001010000 C
b0 A
b0 6
b11010010000000100011 0
b11000001010000 3
b1111 7
b11111111101011011101110011100011 %
b11010 B
b10101010001100 :
b10101010010000 ;
b0 @
#1534000
b11000001010100 3
b11010 <
b10101010011100 "
b11000001010100 =
b10011010000110100010011 0
b1101011 9
b0 C
b10101010010100 ;
b0 7
b10101010010000 :
b10100010011 %
b0 B
#1538000
0E
b10101010001100 "
b10110010011 %
#1542000
b11010010000000100011 %
1E
b1101100 9
b11011 >
b0 <
b100111111000100 3
b11010 @
b11011 B
b11111111101011011101110011100011 0
b1000000000011000 ?
b0 =
b11000001010100 6
b11000001010100 A
b10101010010000 "
b1000000000011000 C
b10101010010100 :
b10101010001100 ;
#1546000
b10011010000110100010011 %
0E
0$
b10101010010100 "
#1550000
b0 %
0'
1$
#1554000
b11111111101011011101110011100011 %
b10101010011000 "
b10101010010000 ;
b0 6
b11010 >
b1101101 9
b0 @
b11000001010100 3
b11000001010100 ?
b11010 B
b11010010000000100011 0
1'
b10101010001100 :
b0 A
1E
b11000001010100 C
b1111 7
#1558000
b0 7
b0 B
b11010 <
b10101010010100 ;
b10100010011 %
b10101010011100 "
b11000001011000 =
b11000001011000 3
b1101110 9
b0 C
b10011010000110100010011 0
b10101010010000 :
#1562000
b10101010001100 "
b10110010011 %
0E
#1566000
1E
b10101010010000 "
b10101010001100 ;
b11000001011000 6
b0 <
b11011 B
b10101010010100 :
b1000000000011000 ?
b11011 >
b100111111000000 3
b0 =
b11010 @
b11010010000000100011 %
b1101111 9
b11111111101011011101110011100011 0
b1000000000011000 C
b11000001011000 A
#1570000
0E
0$
b10101010010100 "
b10011010000110100010011 %
#1574000
b0 %
1$
0'
#1578000
1'
b11111111101011011101110011100011 %
1E
b0 6
b0 A
b1111 7
b10101010010000 ;
b11000001011000 3
b11010 B
b11010 >
b10101010001100 :
b11000001011000 ?
b10101010011000 "
b0 @
b11000001011000 C
b11010010000000100011 0
b1110000 9
#1582000
b1110001 9
b10101010010000 :
b11000001011100 =
b10100010011 %
b0 7
b11010 <
b0 B
b10101010010100 ;
b11000001011100 3
b10011010000110100010011 0
b0 C
b10101010011100 "
#1586000
b10101010001100 "
0E
b10110010011 %
